{
  "page": 1,
  "total_results": 219,
  "total_pages": 11,
  "results": [
    {
      "vote_count": 2,
      "id": 494061,
      "video": false,
      "vote_average": 7,
      "title": "Hello!",
      "popularity": 2.30435,
      "poster_path": "/7Vl7Yx3rvVv0oWHakmDmc22cGDZ.jpg",
      "original_language": "te",
      "original_title": "Hello!",
      "genre_ids": [
        28,
        10751,
        10402,
        10749
      ],
      "backdrop_path": "/2aqzHMZBv2MayQ57i3M27mZPF11.jpg",
      "adult": false,
      "overview": "Avinash/Seenu is a street urchin brought up by his loving adoptive parents Saru and Prakash. The love of his life is the girl he meets during childhood Junnu/Priya, whom fate had snatched away from him. Fourteen long years and they still wait for the day they will meet again. Will destiny help them?",
      "release_date": "2017-12-22"
    },
    {
      "vote_count": 0,
      "id": 507531,
      "video": false,
      "vote_average": 0,
      "title": "Hello & Goodbye",
      "popularity": 9.256735,
      "poster_path": "/lGTi0Ak7QLCMBnoOxj2WoNOMz0y.jpg",
      "original_language": "en",
      "original_title": "Hello & Goodbye",
      "genre_ids": [],
      "backdrop_path": null,
      "adult": false,
      "overview": "With wounds still open from the recent end of their 5 year relationship, Drew and Beth decide to meet up for a quiet dinner at Drew's apartment to help solidify their newly found station as \"just friends\".",
      "release_date": "2018-03-09"
    },
    {
      "vote_count": 9,
      "id": 20365,
      "video": false,
      "vote_average": 3.7,
      "title": "Hello",
      "popularity": 1.748425,
      "poster_path": "/lzldL8ZBARt0vt6FdY4ahmIyXRD.jpg",
      "original_language": "en",
      "original_title": "Hello",
      "genre_ids": [
        18,
        10769
      ],
      "backdrop_path": "/hkOA2f11NYjkNZBowK1zefaoo01.jpg",
      "adult": false,
      "overview": "Hello... is a tale about the events that happen one night at a call center. Told through the views of the protagonist, Shyam, it is a story of almost lost love, thwarted ambitions, absence of family affection, pressures of a patriarchal set up, and the work environment of a globalized office. Shyam is losing his girl friend because his career is going nowhere as he trudges his way around in a call center. His girl friend, Priyanka, is also an agent like him at the call center who is about to be snatched by an NRI technogeek. There is also the aspiring model, Esha, who is hoping for the break that seems to be always already eluding her and the man about town, Vroom, who is into well, things. The housewife, Radhika, who is constantly at the receiving end of her mother-in-law and a beleaguered grandfather, Military Uncle, who has been barred from interacting with his grandchild make up the...",
      "release_date": "2008-10-10"
    },
    {
      "vote_count": 70,
      "id": 14030,
      "video": false,
      "vote_average": 6.7,
      "title": "Hello, Dolly!",
      "popularity": 4.401279,
      "poster_path": "/g9D7KB8zR3wxfOgQyTncAVPAxXy.jpg",
      "original_language": "en",
      "original_title": "Hello, Dolly!",
      "genre_ids": [
        35,
        10751,
        10402,
        10749
      ],
      "backdrop_path": "/7dk68tDxfAadbsJ4aPuMOEwbC3i.jpg",
      "adult": false,
      "overview": "Matchmaker, Dolly Levi takes a trip to Yonkers, New York to see the \"well-known unmarried half-a-millionaire,\" Horace Vandergelder. While there, she convinces him, his two stock clerks and his niece and her beau to go to New York City.",
      "release_date": "1969-12-12"
    },
    {
      "vote_count": 1,
      "id": 245464,
      "video": false,
      "vote_average": 7.5,
      "title": "Hello",
      "popularity": 1.328806,
      "poster_path": "/xzPmyA09ebJoRL6kdbuaaHQgg5y.jpg",
      "original_language": "en",
      "original_title": "Hello",
      "genre_ids": [
        35
      ],
      "backdrop_path": null,
      "adult": false,
      "overview": "The film tells the story of three best friends named Ako, Aki and Awang, who are well-known in their village for their mischievous and humourous pranks. The trio work for Pak Man. One day, they are assigned to pick up his daughter Misha, who has just returned from overseas and dreams of becoming a doctor. The trio have been in love with her for a long time but she does not pay them any heed. When Misha is robbed by a snatch thief one day, she is rescued by a doctor named Shafiq. Her face reminds the doctor of his late wife, and he begins to pursue her, which annoys the trio.",
      "release_date": "2013-10-17"
    },
    {
      "vote_count": 198,
      "id": 320588,
      "video": false,
      "vote_average": 6.4,
      "title": "Hello, My Name Is Doris",
      "popularity": 8.079136,
      "poster_path": "/hLzelb2k68qgtnxuWLicqDoBNzV.jpg",
      "original_language": "en",
      "original_title": "Hello, My Name Is Doris",
      "genre_ids": [
        35,
        18,
        10749
      ],
      "backdrop_path": "/vMwMgSjFKsGbXhW6Nvy517ipMUo.jpg",
      "adult": false,
      "overview": "A self-help seminar inspires a sixty-something woman to romantically pursue her younger co-worker.",
      "release_date": "2015-11-27"
    },
    {
      "vote_count": 59,
      "id": 303623,
      "video": false,
      "vote_average": 6.4,
      "title": "Hello Ladies: The Movie",
      "popularity": 4.728908,
      "poster_path": "/hMF4pVH7dp7YptvvqVCMFABXJz.jpg",
      "original_language": "en",
      "original_title": "Hello Ladies: The Movie",
      "genre_ids": [
        35
      ],
      "backdrop_path": "/9ENOXfQ20TsRma0oFucpAdl0kbz.jpg",
      "adult": false,
      "overview": "When Stuart learns that his British ex-girlfriend is planning to visit Los Angeles with her husband, he sets out to impress them with his glamorous lifestyle, enlisting a Russian model he’s just met to play the role of his beautiful girlfriend. What could go wrong?",
      "release_date": "2014-11-22"
    },
    {
      "vote_count": 1,
      "id": 299922,
      "video": false,
      "vote_average": 3.5,
      "title": "Hello",
      "popularity": 1.047059,
      "poster_path": null,
      "original_language": "en",
      "original_title": "Hello",
      "genre_ids": [],
      "backdrop_path": null,
      "adult": false,
      "overview": "When Max (Eric Stoltz), urged on by \"Risk Management,\" a self-help book for the hapless, decides to approach his fellow ferry-commuter Rory (Susanna Thompson), he hopes simply saying hello might change his life for the better. But Rory only accepts contact by contract. Max finds he can play along. As the two negotiate a whirlwind relationship on paper, Rory slowly lets down her guard; but when her unresolved personal life intervenes in the form of Donald (Kevin Tighe), Max must manage a little more risk than he bargained on.",
      "release_date": "2014-01-01"
    },
    {
      "vote_count": 1,
      "id": 351406,
      "video": false,
      "vote_average": 7,
      "title": "Hello",
      "popularity": 1.039906,
      "poster_path": "/mH7NsbuAjRHwPmMl6i7EQ9eE5Cy.jpg",
      "original_language": "en",
      "original_title": "Hello",
      "genre_ids": [
        16
      ],
      "backdrop_path": null,
      "adult": false,
      "overview": "In a digital world, can analogue find true love? It is the wise old gramaphone who has the answers for a lovesick loner.",
      "release_date": "2003-04-24"
    },
    {
      "vote_count": 16,
      "id": 35151,
      "video": false,
      "vote_average": 5,
      "title": "Hello Again",
      "popularity": 2.521063,
      "poster_path": "/xmGWJyH5PcHUEFuqwGx9xTDS1qW.jpg",
      "original_language": "en",
      "original_title": "Hello Again",
      "genre_ids": [
        14,
        18,
        35,
        878,
        10749
      ],
      "backdrop_path": "/mBnl9Or1XNAIbRMb3WRkEqudCq7.jpg",
      "adult": false,
      "overview": "Lucy Chadman (Shelley Long) chokes to death and is resurrected by her loopy sister Zelda (Judith Ivey) on the one year anniversary of her death. Lucy, of course, does not believe she has actually been dead and thinks it is an elaborate hoax until she goes to her apartment and discovers her husband (Corbin Bernsen) married to her gold digging best friend, Kim (Sela Ward).",
      "release_date": "1987-11-06"
    },
    {
      "vote_count": 0,
      "id": 277875,
      "video": false,
      "vote_average": 0,
      "title": "Hello",
      "popularity": 1.001177,
      "poster_path": "/9oCm6DKCb0Wa3hUEUHVcfl7utvW.jpg",
      "original_language": "en",
      "original_title": "Hello",
      "genre_ids": [
        10749
      ],
      "backdrop_path": "/vVmrYLfWxd9QnANaMRqxFKVzRUb.jpg",
      "adult": false,
      "overview": "What the movie has in store for you, wait and watch this space for more updates.",
      "release_date": "1999-11-06"
    },
    {
      "vote_count": 12,
      "id": 138977,
      "video": false,
      "vote_average": 5.9,
      "title": "Hello Herman",
      "popularity": 2.34793,
      "poster_path": "/t02RkrJQ2XyzZLDZIPtnOWqeWn6.jpg",
      "original_language": "ru",
      "original_title": "Hello Herman",
      "genre_ids": [
        18
      ],
      "backdrop_path": "/6DHypCjTymSftXrNl7mUmoWCCpz.jpg",
      "adult": false,
      "overview": "Set in the not so distant future, in Any Town USA, sixteen year old Herman Howards makes a fateful decision. He enters his suburban school and kills thirty nine students, two teachers, and a police officer. Just before his arrest he emails his idol, famous journalist Lax Morales, sending him clips of the shootings captured with Herman's own digital camera. In the clips Herman tells Lax, \"I want to tell my story on your show\". Lax, haunted by his own past, is now face to face with Herman.",
      "release_date": "2012-06-05"
    },
    {
      "vote_count": 0,
      "id": 506406,
      "video": false,
      "vote_average": 0,
      "title": "Hello Apartment",
      "popularity": 2.336644,
      "poster_path": "/c9TsrBBeVUhtLET3s0zJ6Vih9Mw.jpg",
      "original_language": "en",
      "original_title": "Hello Apartment",
      "genre_ids": [],
      "backdrop_path": null,
      "adult": false,
      "overview": "Ava enters the Brooklyn loft for the first time. It's empty. Painted fresh, but old. The sunlight enters from the large windows, on the wooden floor, worn and with the signs of the previous inhabitants. Ava sits down. And it's immediately home. Her house. It is here that he will meet a boy and fall in love. It is here that they will drink wine together at a party. It is here that they will scream at each other and decide that it is over. The apartment will become a witness to the personal story of Ava, joy and sadness, hopes and disappointments, that universal space in which we all find ourselves becoming adults.",
      "release_date": "2018-02-19"
    },
    {
      "vote_count": 1,
      "id": 446289,
      "video": false,
      "vote_average": 5,
      "title": "Hello Again",
      "popularity": 2.319647,
      "poster_path": "/bHHt3HIr7MpYiRSw1XNxZm3B3cn.jpg",
      "original_language": "en",
      "original_title": "Hello Again",
      "genre_ids": [
        18,
        10402,
        10749
      ],
      "backdrop_path": "/18STSjlbP0v8eE5kfkNEAsHC2dm.jpg",
      "adult": false,
      "overview": "Ten lost souls slip in and out of one another's arms in a daisy-chained musical exploration of love's bittersweet embrace. A film adaptation of Michael John LaChiusa's celebrated musical, originally based on Arthur Schnitzler's play, La Ronde.",
      "release_date": "2017-11-08"
    },
    {
      "vote_count": 11,
      "id": 39347,
      "video": false,
      "vote_average": 4.9,
      "title": "Hello Brother",
      "popularity": 2.192262,
      "poster_path": "/Ac1IgMwVBPDDMFZp3irirYWDVdb.jpg",
      "original_language": "hi",
      "original_title": "Hello Brother",
      "genre_ids": [
        35,
        10769,
        10749
      ],
      "backdrop_path": null,
      "adult": false,
      "overview": "Hero (Salman Khan) loves Rani (Rani Mukerji), but she doesn't. Hero, meanwhile, is a loyal worker at A-Z, a courier company helm ed by baddie Khanna (Shakti Kapoor). The man actually distributes drugs around the city, the Tough cop Inspector Vishal (Arbaaz Khan) arrives in the city and starts trailing Hero whom he suspects to be involved in the racket. But the poor unsuspecting Hero is innocent. So when he stumbles upon the truth, Khanna has him bumped off. At the same time, he manages to shoot Vishal in the heart. A heart transplant takes place and Hero's heart is given to Vishal. Hero's spirit comes back to avenge his death, but only Vishal can see him. Since Hero's heart beats for Rani, it is only natural for Vishal to fall in love with Rani. And fortunately, she too falls in love with him.",
      "release_date": "1999-09-09"
    },
    {
      "vote_count": 1,
      "id": 159189,
      "video": false,
      "vote_average": 0,
      "title": "Hello Brother",
      "popularity": 1.247304,
      "poster_path": "/n1N7EcNkvJCAY8IocGh8ksWaaqc.jpg",
      "original_language": "ko",
      "original_title": "안녕, 형아",
      "genre_ids": [
        18
      ],
      "backdrop_path": "/viwNvJmeb9hBkQLh7Er8a8fzIM0.jpg",
      "adult": false,
      "overview": "Nine-year-old Hani (PARK Ji-Bin) is a troublemaker who isn't afraid of anything. A precocious punk, his school friends are all his underlings, and even his family members are under his control. He especially considers his elder brother, HanByul, who often complains of being sick, his greatest target. Until one fateful day, HanByul collapses at home and is rushed to the emergency room and the worst nightmare for any parents becomes a reality - he is diagnosed with cancer. The film is based on a true story.",
      "release_date": "2005-05-27"
    },
    {
      "vote_count": 19,
      "id": 460822,
      "video": false,
      "vote_average": 6.6,
      "title": "Oh, Hello: On Broadway",
      "popularity": 3.110562,
      "poster_path": "/4sgAcBkhKoazB4xFwiYfWIdLMNf.jpg",
      "original_language": "en",
      "original_title": "Oh, Hello: On Broadway",
      "genre_ids": [
        35
      ],
      "backdrop_path": "/vFOzXq7G9LTfCfQoYLWljEkdO3w.jpg",
      "adult": false,
      "overview": "Two delusional geriatrics reveal curious pasts, share a love of tuna and welcome a surprise guest in this filming of the popular Broadway comedy show.",
      "release_date": "2017-06-13"
    },
    {
      "vote_count": 2,
      "id": 225281,
      "video": false,
      "vote_average": 4.3,
      "title": "Hello Carter",
      "popularity": 1.534435,
      "poster_path": "/tB7iUajuKihS1IzBTA41SHoiSVP.jpg",
      "original_language": "en",
      "original_title": "Hello Carter",
      "genre_ids": [
        18,
        35
      ],
      "backdrop_path": "/c9qfb8yMZIYumnSaGln3DbclVaD.jpg",
      "adult": false,
      "overview": "Down-on-his-luck Carter has recently become homeless, single and unemployed. Desperate to win back his ex-girlfriend, he goes off on an adventure throughout London to find her, picking up some odd helpers along the way.",
      "release_date": "2013-10-11"
    },
    {
      "vote_count": 58,
      "id": 84281,
      "video": false,
      "vote_average": 5.7,
      "title": "Hello I Must Be Going",
      "popularity": 4.188496,
      "poster_path": "/u2eq0OHrSSQ5Tpl8Zq6B3DtcwUe.jpg",
      "original_language": "en",
      "original_title": "Hello I Must Be Going",
      "genre_ids": [
        18,
        35,
        10749
      ],
      "backdrop_path": "/6ilhg0yLJha3Vva2uYbuOGX2zlJ.jpg",
      "adult": false,
      "overview": "Divorced and demoralized Amy Minsky’s prospects look bleak when she is condemned to move back in with her parents at the age of 35. Everyone wants to help, but, as her patience level with advice is plummeting, a bold teenage boy enters her life, igniting her last bit of self-esteem. What ensues is an unconventional love story infused with all the good things Amy needs to get on in life, and that just may include great sex.",
      "release_date": "2012-09-07"
    },
    {
      "vote_count": 0,
      "id": 495565,
      "video": false,
      "vote_average": 0,
      "title": "Hello Dubaikkaran",
      "popularity": 1.493974,
      "poster_path": "/35WdC6Yt6ljSpdsk3BQpTBUNHtM.jpg",
      "original_language": "ml",
      "original_title": "ഹലോ ദുബായ്ക്കാരന്‍",
      "genre_ids": [
        35
      ],
      "backdrop_path": "/i8olmVB4wf869Ds2kPAX1myKEIg.jpg",
      "adult": false,
      "overview": "Hello Dubaikkaran is a Malayalam movie starring Adil Ibrahim, Malavika Menon and Devan in prominent roles. The cast also includes Salim Kumar, Dharmajan Bolgatty and Tini Tom. It is a drama directed by Baburaj Harisri and Harisree Yousuf with Nadirsha as the music composer, forming part of the crew.",
      "release_date": "2017-11-10"
    }
  ]
}